{
  "bookendVersion": "v1.0",
  "shareProviders": [
    "facebook",
    "twitter",
    "email"
  ],
  "components": [
    {
      "type": "heading",
      "text": "CBD Products"
    },
    {
      "type": "small",
      "title": "CBD Tinctures",
      "url": "https://purecbdexchange.com/product/cbd-wholesale/2500mg-full-spectrum-cbd-tincture/",
      "image": "https://storage.googleapis.com/pure-backend.appspot.com/1/2018/11/tincture.jpg"
    },
    {
      "type": "portrait",
      "title": "CBD Joints",
      "url": "https://purecbdexchange.com/product/avpflower/pre-rolled-cbd-flower-12pk/",
      "image": "https://storage.googleapis.com/pure-backend.appspot.com/1/2018/08/joints.jpg",
      "category": "CBD Flower"
    },
    {
      "type": "landscape",
      "title": "Hemp CBD Cigarettes",
      "url": "https://purecbdexchange.com/product/cbd-wholesale/hemp-cbd-cigarettes-10pk/",
      "image": "https://storage.googleapis.com/pure-backend.appspot.com/1/2018/08/Cigs.jpg",
      "category": "CBD Flower"
    },
    {
      "type": "cta-link",
      "links": [
        {
          "text": "Pure CBD Exchange",
          "url": "https://purecbdexchange.com/"
        }
      ]
    }
  ]
}